ra_rating_analysis_longitudinal
…
# replace the difficulty rating from ZH for now 
ra_rating_clean[ra_rating_clean$ra == "ZH", "difficulty"] <- NA

check recoding

# count the number of NAs per column

ra_rating_clean %>%
  summarise_all(funs(sum(is.na(.))))

## # A tibble: 1,440 x 34
##    Goals content content.other ought_motivation frequency identified_moti
##    <int>   <int>         <int>            <int>     <int>            <int>
##  1     0       0             1                0         0                0
##  2     0       0             1                0         0                0
##  3     0       0             1                0         0                0
##  4     0       0             1                0         0                0
##  5     0       0             1                0         0                0
##  6     0       0             1                0         0                0
##  7     0       0             1                0         0                0
##  8     0       0             1                0         0                0
##  9     0       0             1                0         0                0
## 10     0       0             1                0         0                0
## #  with 1,430 more rows, and 28 more variables: intrinsic_motivation <int>,
## #   connectedness <int>, basic_needs <int>, attractiveness_achievement <int>,
## #   attractiveness_progress <int>, specificity <int>, approach_avoidance <int>,
## #   visibility <int>, introjected_motivation <int>,
## #   attainment_maintenance <int>, instrumentality <int>,
## #   social_desirability <int>, importance <int>, clarity <int>,
## #   ideal_motivation <int>, external_motivation <int>, affordance <int>,
## #   external_importance <int>, construal_level <int>, meaningfulness <int>,
## #   commonality <int>, temporal_duration <int>, control <int>,
…
merge with RA ratings

merged_rating_l <- ra_ratingDf_l %>%
  left_join(base_df_l, by = c("Goals", "variable")) %>% 
  rowwise() %>%
  mutate(ra_mean = sum(RA_1, RA_2, na.rm = T) / 2)

merged_rating_l %>%
  group_by(variable) %>%
  summarise(na_sum = sum(is.na(subject_rating)))

## `summarise()` ungrouping output (override with `.groups` argument)

## # A tibble: 24 x 2
##    variable                   na_sum
##    <chr>                       <int>
##  1 affordance                      0
##  2 attainability                   0
##  3 attractiveness_achievement      2
##  4 attractiveness_progress         0
##  5 basic_needs                     0
##  6 clarity                         0
##  7 commonality                     2
##  8 construal_level                11
##  9 control                         1
## 10 difficulty                      0
## #  with 14 more rows
…
