clean_merge_allFollowups
…
# transform the wide format into a long format
F3_goalRep_post_l <- F3_goalRep_post_w %>%
  gather(affordance: visibility, key = "variable", value = "post_rating")

# calculate the percentage of missing data
F3_goalRep_post_l %>%
  group_by(MTurkCode) %>%
  summarise(missNum = sum(is.na(post_rating)),
            totalNum = mean(listNum) * 31,
            missPerc = ((missNum/totalNum) * 100)) %>%
  arrange(desc(missPerc))

## `summarise()` ungrouping output (override with `.groups` argument)

## # A tibble: 211 x 4
##    MTurkCode      missNum totalNum missPerc
##    <chr>            <int>    <dbl>    <dbl>
##  1 AYPOAY43REHC8      155      155   100   
##  2 A2PE32I58ANCDD       3       62     4.84
##  3 A1EH9BPKYXFBS5       2      155     1.29
##  4 A33RI08QRVG5Q0       2      155     1.29
##  5 A132GRVDGXPJGY       1       93     1.08
##  6 A1LS7GARU7CD08       1       93     1.08
##  7 A1TPGXT718D68E       1       93     1.08
##  8 A286W816CMIZL9       1       93     1.08
##  9 A2X3FSFHV5GHJU       1       93     1.08
## 10 AF0W4ZBY7VXOU        1       93     1.08
## #  with 201 more rows
…
